<svg width="24" height="24" viewBox="0 0 24 24" fill="none" xmlns="http://www.w3.org/2000/svg">
<mask id="mask0_8161_39860" style="mask-type:alpha" maskUnits="userSpaceOnUse" x="0" y="0" width="24" height="24">
<rect width="24" height="24" fill="#D9D9D9"/>
</mask>
<g mask="url(#mask0_8161_39860)">
<path d="M12 21.5C10.8206 21.5 9.71544 21.2769 8.68467 20.8307C7.65391 20.3846 6.75519 19.7782 5.98852 19.0115C5.22187 18.2449 4.61547 17.3461 4.16932 16.3154C3.72316 15.2846 3.50007 14.1795 3.50007 13C3.50007 11.8205 3.72316 10.7154 4.16932 9.68463C4.61547 8.65386 5.22187 7.75514 5.98852 6.98848C6.75519 6.22183 7.65391 5.61543 8.68467 5.16928C9.71544 4.72311 10.8206 4.50003 12 4.50003C13.1795 4.50003 14.2847 4.72311 15.3154 5.16928C16.3462 5.61543 17.2449 6.22183 18.0116 6.98848C18.7782 7.75514 19.3846 8.65386 19.8308 9.68463C20.2769 10.7154 20.5 11.8205 20.5 13C20.5 14.1795 20.2769 15.2846 19.8308 16.3154C19.3846 17.3461 18.7782 18.2449 18.0116 19.0115C17.2449 19.7782 16.3462 20.3846 15.3154 20.8307C14.2847 21.2769 13.1795 21.5 12 21.5ZM14.9732 17.0269L16.0269 15.9731L12.75 12.6962V8H11.2501V13.3039L14.9732 17.0269ZM5.7539 2.8885L6.80772 3.94233L2.94237 7.80768L1.88855 6.75385L5.7539 2.8885ZM18.2462 2.8885L22.1116 6.75385L21.0577 7.80768L17.1924 3.94233L18.2462 2.8885ZM12 20C13.9436 20 15.5962 19.3192 16.9578 17.9577C18.3193 16.5962 19.0001 14.9436 19.0001 13C19.0001 11.0564 18.3193 9.40385 16.9578 8.0423C15.5962 6.68077 13.9436 6 12 6C10.0565 6 8.4039 6.68077 7.04235 8.0423C5.68082 9.40385 5.00005 11.0564 5.00005 13C5.00005 14.9436 5.68082 16.5962 7.04235 17.9577C8.4039 19.3192 10.0565 20 12 20Z" fill="#1C1B1F"/>
</g>
</svg>
