<svg width="24" height="24" viewBox="0 0 24 24" fill="none" xmlns="http://www.w3.org/2000/svg">
<mask id="mask0_8689_48713" style="mask-type:alpha" maskUnits="userSpaceOnUse" x="0" y="0" width="24" height="24">
<rect width="24" height="24" fill="#D9D9D9"/>
</mask>
<g mask="url(#mask0_8689_48713)">
<path d="M3.99998 19H8.33655V11H3.99998V19ZM9.8365 19H14.1635V5.00001H9.8365V19ZM15.6634 19H20V13H15.6634V19ZM2.5 18.6923V11.3077C2.5 10.8106 2.67701 10.3851 3.03102 10.0311C3.38503 9.67704 3.81058 9.50003 4.3077 9.50003H8.33655V5.30773C8.33655 4.81062 8.51355 4.38506 8.86755 4.03106C9.22155 3.67704 9.64711 3.50003 10.1442 3.50003H13.8557C14.3528 3.50003 14.7784 3.67704 15.1324 4.03106C15.4864 4.38506 15.6634 4.81062 15.6634 5.30773V11.5H19.6923C20.1894 11.5 20.6149 11.677 20.9689 12.0311C21.3229 12.3851 21.5 12.8106 21.5 13.3077V18.6923C21.5 19.1894 21.3229 19.615 20.9689 19.969C20.6149 20.323 20.1894 20.5 19.6923 20.5H4.3077C3.81058 20.5 3.38503 20.323 3.03102 19.969C2.67701 19.615 2.5 19.1894 2.5 18.6923Z" fill="#3E3F4B"/>
</g>
</svg>
