<svg width="24" height="24" viewBox="0 0 24 24" fill="none" xmlns="http://www.w3.org/2000/svg">
<path fill-rule="evenodd" clip-rule="evenodd" d="M20.2929 2.63222C20.2929 2.63222 19.9008 2.53191 19.5123 2.64357L19.5093 2.64444L2.04284 7.56393C2.04284 7.56393 1.5857 7.68891 1.28334 8.05385C1.28334 8.05385 0.980994 8.4188 0.943201 8.89121C0.943201 8.89121 0.905409 9.36362 1.14589 9.77199C1.14589 9.77199 1.38638 10.1804 1.80737 10.3716L9.83172 14.1681L13.6235 22.182C13.6235 22.182 13.8195 22.6135 14.2279 22.854C14.2279 22.854 14.6363 23.0945 15.1087 23.0567C15.1087 23.0567 15.5811 23.0189 15.946 22.7165C15.946 22.7165 16.311 22.4142 16.4344 21.9626L16.5266 21.6354C16.0406 21.4485 15.5878 21.1946 15.1796 20.885L14.9906 21.5559L14.9891 21.5615L14.241 19.9803C13.683 19.2983 13.2855 18.4797 13.1065 17.5823L11.2989 13.7617L15.1644 9.89615C15.3051 9.7555 15.3844 9.56445 15.3844 9.36554C15.3844 9.16663 15.3054 8.97586 15.1647 8.83521L15.1582 8.82881C15.0182 8.69234 14.8299 8.61554 14.6344 8.61554C14.6119 8.61554 14.5894 8.61655 14.567 8.61857C14.3921 8.63436 14.2282 8.71102 14.1041 8.83521L10.2382 12.7011L2.44889 9.01568L2.43842 9.01082L19.91 4.08995L17.9562 11.0265C18.1351 11.009 18.3165 11 18.5 11C18.8403 11 19.1734 11.0309 19.4967 11.0901L21.3542 4.49478C21.3542 4.49478 21.4689 4.1027 21.3677 3.70694C21.3677 3.70694 21.2664 3.31118 20.9776 3.02231C20.9776 3.02231 20.6887 2.73346 20.2929 2.63222ZM15.3134 19.6865C16.1891 20.5621 17.2513 20.9999 18.5 20.9999C19.7487 20.9999 20.8108 20.5621 21.6865 19.6865C22.5621 18.8108 22.9999 17.7487 22.9999 16.5C22.9999 15.2513 22.5621 14.1891 21.6865 13.3134C20.8108 12.4378 19.7487 12 18.5 12C17.2513 12 16.1891 12.4378 15.3134 13.3134C14.4378 14.1891 14 15.2513 14 16.5C14 17.7487 14.4378 18.8108 15.3134 19.6865ZM20.773 18.15L20.15 18.773L18.0576 16.6807V13.5576H18.9423V16.3192L20.773 18.15Z" fill="#252525"/>
</svg>
